feil
…
── Attaching packages ─────────────────────────────────────── tidyverse 1.3.2 ──
✔ ggplot2 3.3.6      ✔ purrr   0.3.5 
✔ tibble  3.1.8      ✔ dplyr   1.0.10
✔ tidyr   1.2.1      ✔ stringr 1.4.1 
✔ readr   2.1.3      ✔ forcats 0.5.2 
── Conflicts ────────────────────────────────────────── tidyverse_conflicts() ──
✖ dplyr::filter() masks stats::filter()
✖ dplyr::lag()    masks stats::lag()

# Ok
starwars %>% 
  select(name)

# A tibble: 87 × 1
   name              
   <chr>             
 1 Luke Skywalker    
 2 C-3PO             
 3 R2-D2             
 4 Darth Vader       
 5 Leia Organa       
 6 Owen Lars         
 7 Beru Whitesun lars
 8 R5-D4             
 9 Biggs Darklighter 
10 Obi-Wan Kenobi    
# … with 77 more rows

# Feilmelding
starwars[name]

Error in `[.tbl_df`(starwars, name): object 'name' not found

# OK
starwars["name"]

# A tibble: 87 × 1
   name              
   <chr>             
 1 Luke Skywalker    
 2 C-3PO             
 3 R2-D2             
 4 Darth Vader       
 5 Leia Organa       
 6 Owen Lars         
 7 Beru Whitesun lars
 8 R5-D4             
 9 Biggs Darklighter 
10 Obi-Wan Kenobi    
# … with 77 more rows
…
