R for Byplankontoret - 8 Velge rader
…
Vi skal diskutere utvelgelse av rader, ofte kjent som filtrering.

8.1 Filter

Filtre bruker vi svært ofte. De lar oss begrense mengden data vi ser på og arbeider på. Vi får filtra våre dplyr. Merk at det finnes en filter-funksjon i stats-pakka som lastes inn når vi starer R, og dette filteret blir overskrevet av dplyr/tidyverse. Om du får feilmelding når du bruker filter kan det være at du har glemt å laste inn dplyr, og at R forsøker å bruke stats’ filter().

Filtret velger ut rader ved å sjekke ut innholdet i en kolonne. Vi kan velge ut alle rader som har en viss verdi på en kolonne. La oss se på at alle menneskene i datasettet starwars.

starwars %>% filter(species == "Human")

# A tibble: 35 × 14
   name        height  mass hair_…¹ skin_…² eye_c…³ birth…⁴ sex   gender homew…⁵
   <chr>        <int> <dbl> <chr>   <chr>   <chr>     <dbl> <chr> <chr>  <chr>  
 1 Luke Skywa…    172    77 blond   fair    blue       19   male  mascu… Tatooi…
 2 Darth Vader    202   136 none    white   yellow     41.9 male  mascu… Tatooi…
 3 Leia Organa    150    49 brown   light   brown      19   fema… femin… Aldera…
 4 Owen Lars      178   120 brown,… light   blue       52   male  mascu… Tatooi…
 5 Beru White…    165    75 brown   light   blue       47   fema… femin… Tatooi…
 6 Biggs Dark…    183    84 black   light   brown      24   male  mascu… Tatooi…
 7 Obi-Wan Ke…    182    77 auburn… fair    blue-g…    57   male  mascu… Stewjon
 8 Anakin Sky…    188    84 blond   fair    blue       41.9 male  mascu… Tatooi…
 9 Wilhuff Ta…    180    NA auburn… fair    blue       64   male  mascu… Eriadu 
10 Han Solo       180    80 brown   fair    brown      29   male  mascu… Corell…
# … with 25 more rows, 4 more variables: species <chr>, films <list>,
#   vehicles <list>, starships <list>, and abbreviated variable names
#   ¹​hair_color, ²​skin_color, ³​eye_color, ⁴​birth_year, ⁵​homeworld

Filteret velger alle radene hvor sammenlikninga vi oppgir er TRUE (sann). Mer robotisk kan vi si at den i tilfellet over velger rader hvor cella under kolonna species tilfredsstiller betingelsen “innholdet i cella er lik Human”. Dermed kan vi oppgi andre uttrykk som evalueres til enten TRUE eller FALSE. Hva med å hente ut alle som er høyere enn 170 cm?

starwars %>% filter(height > 170)

# A tibble: 54 × 14
   name        height  mass hair_…¹ skin_…² eye_c…³ birth…⁴ sex   gender homew…⁵
   <chr>        <int> <dbl> <chr>   <chr>   <chr>     <dbl> <chr> <chr>  <chr>  
 1 Luke Skywa…    172    77 blond   fair    blue       19   male  mascu… Tatooi…
 2 Darth Vader    202   136 none    white   yellow     41.9 male  mascu… Tatooi…
 3 Owen Lars      178   120 brown,… light   blue       52   male  mascu… Tatooi…
 4 Biggs Dark…    183    84 black   light   brown      24   male  mascu… Tatooi…
 5 Obi-Wan Ke…    182    77 auburn… fair    blue-g…    57   male  mascu… Stewjon
 6 Anakin Sky…    188    84 blond   fair    blue       41.9 male  mascu… Tatooi…
 7 Wilhuff Ta…    180    NA auburn… fair    blue       64   male  mascu… Eriadu 
 8 Chewbacca      228   112 brown   unknown blue      200   male  mascu… Kashyy…
 9 Han Solo       180    80 brown   fair    brown      29   male  mascu… Corell…
10 Greedo         173    74 <NA>    green   black      44   male  mascu… Rodia  
# … with 44 more rows, 4 more variables: species <chr>, films <list>,
#   vehicles <list>, starships <list>, and abbreviated variable names
#   ¹​hair_color, ²​skin_color, ³​eye_color, ⁴​birth_year, ⁵​homeworld
…
  paste0(sample(tall_bokstaver, size = runif(1, 3, 5), replace = TRUE), collapse = "")
}

set.seed(123)

# Setter det sammen i et datasett.  
utvalg <- tibble(
  id = seq(1:200), 
  name = replicate(200, lag_streng())
)

# Slik ser det ut. 
utvalg

# A tibble: 200 × 2
      id name 
   <int> <chr>
 1     1 eid  
 2     2 10ha5
 3     3 d5i9 
 4     4 38710
 5     5 i4dg 
 6     6 7be10
 7     7 799  
 8     8 762  
 9     9 58b  
10    10 ch1  
# … with 190 more rows
…
