R for Byplankontoret - 10 Sammenslåing av data
…
datX 

# A tibble: 5 × 2
  colA   colB
  <chr> <int>
1 a         1
2 b         2
3 c         3
4 d         4
5 e         5

datY

# A tibble: 30 × 2
   colA   colC
   <chr> <int>
 1 a        10
 2 a        11
 3 a        12
 4 b        13
 5 b        14
 6 b        15
 7 c        16
 8 c        17
 9 c        18
10 d        19
# … with 20 more rows
…
10.2 Den allsidige join

Hovedpoenget med joins er å slå sammen datasett fra ulike kilder. I min kode vil dere se at jeg innimellom har funnet andre bruksområder for dem. I enkelte tilfeller finnes det sikkert andre måter å løse problemet på, men den første løsninga jeg fant som virka, var å bruke join. Og hvis det funker, er det greit. La oss se et eksempel: Vi har et datasett som viser antall personer i hver alder (fra 0 til 119). Vi har lyst å gjøre om kontinuerlig alder til alderskategorier med fem alderstrinn i hver kategori opp til 80. Alle som er 80 eller eldre havner i sin egen kategori. Vi kan gjøre dette enkelt med en mutate() og case_when(), men det vil kreve at vi gjentar oss sjøl mer enn tre ganger. Ergo kan vi spare tid ved å gjøre det per programmatisk.1

# Simulerer folkemengden i et område, i form av antall personer av hver 
# kjønn og hvert alderstrinn.
folkemengde <- tibble(
  alder = c(c(0:119), c(0:119)),
  kjonn = c(rep("M", 120), rep("K", 120)),
  antall = round(runif(240, 50, 200))
)
folkemengde

# A tibble: 240 × 3
   alder kjonn antall
   <int> <chr>  <dbl>
 1     0 M         93
 2     1 M         76
 3     2 M         76
 4     3 M        122
 5     4 M         88
 6     5 M         82
 7     6 M        151
 8     7 M         57
 9     8 M        155
10     9 M        103
# … with 230 more rows

Her er den suboptimale løsninga

folkemengde %>% 
  mutate(
    aldersgruppe = case_when(
      alder < 5 ~ 1, 
      alder >= 5 & alder < 10 ~ 2,
      alder >= 10 & alder < 15 ~ 3,
      # ... osv.
      TRUE ~ NA_real_
    )
  )

# A tibble: 240 × 4
   alder kjonn antall aldersgruppe
   <int> <chr>  <dbl>        <dbl>
 1     0 M         93            1
 2     1 M         76            1
 3     2 M         76            1
 4     3 M        122            1
 5     4 M         88            1
 6     5 M         82            2
 7     6 M        151            2
 8     7 M         57            2
 9     8 M        155            2
10     9 M        103            2
# … with 230 more rows
…
# Putter de to seriene inn i et data.frame slik at vi kan bruke den seinere.
alder_df <- tibble(
  alder = alder,
  aldersgruppe = aldersgruppe
)

# Logikken er at vi merger folkemengde med aldersdatasettet for å få 
# overført alderskategoriene våre.
folkemengde <- folkemengde %>% 
  left_join(alder_df, 
            by = "alder")
folkemengde

# A tibble: 240 × 4
   alder kjonn antall aldersgruppe
   <int> <chr>  <dbl>        <dbl>
 1     0 M         93            1
 2     1 M         76            1
 3     2 M         76            1
 4     3 M        122            1
 5     4 M         88            1
 6     5 M         82            2
 7     6 M        151            2
 8     7 M         57            2
 9     8 M        155            2
10     9 M        103            2
# … with 230 more rows

# Vi kan summere opp  for å vise at vi fikk det til.
folkemengde %>% 
  group_by(kjonn, aldersgruppe) %>% 
  summarise(antall = sum(antall)) %>% 
  print(n = 25)

`summarise()` has grouped output by 'kjonn'. You can override using the
`.groups` argument.

# A tibble: 34 × 3
# Groups:   kjonn [2]
   kjonn aldersgruppe antall
   <chr>        <dbl>  <dbl>
 1 K                1    579
 2 K                2    712
 3 K                3    670
 4 K                4    640
 5 K                5    600
 6 K                6    692
 7 K                7    538
 8 K                8    632
 9 K                9    500
10 K               10    789
11 K               11    675
12 K               12    667
13 K               13    529
14 K               14    570
15 K               15    601
16 K               16    704
17 K               17   4878
18 M                1    455
19 M                2    548
20 M                3    758
21 M                4    601
22 M                5    733
23 M                6    469
24 M                7    700
25 M                8    587
# … with 9 more rows
…
