R for Byplankontoret - 7 Omstrukturering av data (pivot)
…
Fra bredt til langt og fra langt til bredt — CC BY SA Posit Software

En pivot: Vi velger de tre årskolonnene og sender navna deres til en ny variabel og verdiene deres til en annen. Disse navngir vi ved en streng. Slik kan det set ut

prognose %>% 
  pivot_longer(cols = c(aar2023, aar2024, aar2025), 
               names_to = "aar", 
               values_to = "befolkning")

# A tibble: 24 × 4
   plansone kjonn aar     befolkning
      <int> <chr> <chr>        <dbl>
 1  5001001 M     aar2023        750
 2  5001001 M     aar2024        506
 3  5001001 M     aar2025        590
 4  5001001 K     aar2023        556
 5  5001001 K     aar2024        552
 6  5001001 K     aar2025        783
 7  5001002 M     aar2023        781
 8  5001002 M     aar2024        662
 9  5001002 M     aar2025        575
10  5001002 K     aar2023        643
# … with 14 more rows
…
Jeg gjentar meg sjøl alt for mye i denne kodeblokken. Legg merke til at jeg skriver cols = c(aar2023, aar2024, aar2025). Her kunne jeg spart fingra mine en del, siden det er et repetativt mønster. Okei, kanskje ikke så mye innsparing her, men hvis vi hadde hatt tredve årskolonner ville det begynt å bety noe.

Vi løser nr 1. ved å ta i bruk noen nyttige funksjoner som tidyr-gjengen har lagt inn i pivot()-funksjonene. Og nr. 2 ved hjelp av tidyselect.

prognose <- prognose %>% 
  pivot_longer(cols = contains("aar"), 
               names_to = "aar", 
               values_to = "befolkning", 
               names_prefix = "aar",
               names_transform = as.numeric)

prognose

# A tibble: 24 × 4
   plansone kjonn   aar befolkning
      <int> <chr> <dbl>      <dbl>
 1  5001001 M      2023        750
 2  5001001 M      2024        506
 3  5001001 M      2025        590
 4  5001001 K      2023        556
 5  5001001 K      2024        552
 6  5001001 K      2025        783
 7  5001002 M      2023        781
 8  5001002 M      2024        662
 9  5001002 M      2025        575
10  5001002 K      2023        643
# … with 14 more rows
…
