R for Byplankontoret - 4 Det grunnleggende
…
dat3 <- data.frame(
  colA = c(1, 2, 3, 4),
  colB = c(5, 6, 7)
)

Error in data.frame(colA = c(1, 2, 3, 4), colB = c(5, 6, 7)): arguments imply differing number of rows: 4, 3

R er snill og gir oss tydelig beskjed om hva som er galt i feilmeldinga.

En ting som er fint med alle disse R-pakkene, er at de ofte inkluderer datasett som vi kan bruke for å illustrere pakkens funksjoner. Disse datasetta ligger tilgjengelig på samme måte som funksjonene: man bare skriver navnet dens for å påkalle den. La oss hente et datasett som kommer fra dplyr (som er en del av tidyverse).

starwars

# A tibble: 87 × 14
   name        height  mass hair_…¹ skin_…² eye_c…³ birth…⁴ sex   gender homew…⁵
   <chr>        <int> <dbl> <chr>   <chr>   <chr>     <dbl> <chr> <chr>  <chr>  
 1 Luke Skywa…    172    77 blond   fair    blue       19   male  mascu… Tatooi…
 2 C-3PO          167    75 <NA>    gold    yellow    112   none  mascu… Tatooi…
 3 R2-D2           96    32 <NA>    white,… red        33   none  mascu… Naboo  
 4 Darth Vader    202   136 none    white   yellow     41.9 male  mascu… Tatooi…
 5 Leia Organa    150    49 brown   light   brown      19   fema… femin… Aldera…
 6 Owen Lars      178   120 brown,… light   blue       52   male  mascu… Tatooi…
 7 Beru White…    165    75 brown   light   blue       47   fema… femin… Tatooi…
 8 R5-D4           97    32 <NA>    white,… red        NA   none  mascu… Tatooi…
 9 Biggs Dark…    183    84 black   light   brown      24   male  mascu… Tatooi…
10 Obi-Wan Ke…    182    77 auburn… fair    blue-g…    57   male  mascu… Stewjon
# … with 77 more rows, 4 more variables: species <chr>, films <list>,
#   vehicles <list>, starships <list>, and abbreviated variable names
#   ¹​hair_color, ²​skin_color, ³​eye_color, ⁴​birth_year, ⁵​homeworld
…
dat1 %>% class()

[1] "data.frame"

Så hva er en tibble? Kort fortalt er en tibble en forbedra versjon av et data frame. Tibbles kommer fra pakka tibble som, du gjetta riktig, er en del av tidyverse. En fordel med tibbles er at de printer bedre til konsollen. Spesielt store datasett (vår spesialitet) blir mer leselig i tibbles. Når vi arbeider med tidyverse vil mange av data framene våre bli til tibbles via funksjonene deres. Vi trenger altså sjelden tenke mye på dette. Tibbles arver også klassen data.frame som vi så over, så de fleste funksjoner som ikke har hørt om tibbles vil også funke på dem. Flere fordeler forklares i dokumentasjonen til pakka.

For å oppsummere: du trenger sjelden bry deg om du jobber med tibbles eller data frames. Jeg nevner det her fordi du kanskje vil lure på hvorfor vi noen får tibble-objekter.

5.1 Tilbake til elementer

Nå som vi har tilgang til et større datasett kan vi utforske litt mer hvordan vi arbeider med, nettopp, større datasett. Datasettet starwars inneholder informasjon om dokumentarserien Star Wars, som omhandla livet i gamle dager, i en galakse langt, langt vekk.

starwars

# A tibble: 87 × 14
   name        height  mass hair_…¹ skin_…² eye_c…³ birth…⁴ sex   gender homew…⁵
   <chr>        <int> <dbl> <chr>   <chr>   <chr>     <dbl> <chr> <chr>  <chr>  
 1 Luke Skywa…    172    77 blond   fair    blue       19   male  mascu… Tatooi…
 2 C-3PO          167    75 <NA>    gold    yellow    112   none  mascu… Tatooi…
 3 R2-D2           96    32 <NA>    white,… red        33   none  mascu… Naboo  
 4 Darth Vader    202   136 none    white   yellow     41.9 male  mascu… Tatooi…
 5 Leia Organa    150    49 brown   light   brown      19   fema… femin… Aldera…
 6 Owen Lars      178   120 brown,… light   blue       52   male  mascu… Tatooi…
 7 Beru White…    165    75 brown   light   blue       47   fema… femin… Tatooi…
 8 R5-D4           97    32 <NA>    white,… red        NA   none  mascu… Tatooi…
 9 Biggs Dark…    183    84 black   light   brown      24   male  mascu… Tatooi…
10 Obi-Wan Ke…    182    77 auburn… fair    blue-g…    57   male  mascu… Stewjon
# … with 77 more rows, 4 more variables: species <chr>, films <list>,
#   vehicles <list>, starships <list>, and abbreviated variable names
#   ¹​hair_color, ²​skin_color, ³​eye_color, ⁴​birth_year, ⁵​homeworld
…
starwars[5, 4]

# A tibble: 1 × 1
  hair_color
  <chr>     
1 brown     

# Vi kan få tak i en serie med elementer via `:`
starwars[1:3]

# A tibble: 87 × 3
   name               height  mass
   <chr>               <int> <dbl>
 1 Luke Skywalker        172    77
 2 C-3PO                 167    75
 3 R2-D2                  96    32
 4 Darth Vader           202   136
 5 Leia Organa           150    49
 6 Owen Lars             178   120
 7 Beru Whitesun lars    165    75
 8 R5-D4                  97    32
 9 Biggs Darklighter     183    84
10 Obi-Wan Kenobi        182    77
# … with 77 more rows
…
# A tibble: 4 × 4
  eye_color birth_year sex    gender   
  <chr>          <dbl> <chr>  <chr>    
1 yellow         112   none   masculine
2 red             33   none   masculine
3 yellow          41.9 male   masculine
4 brown           19   female feminine 

Det er upraktisk å skulle huske indekser til alt. Heldigvis kan vi henvise til kolonner dersom de er navngitt, slik som her:

starwars["eye_color"]

# A tibble: 87 × 1
   eye_color
   <chr>    
 1 blue     
 2 yellow   
 3 red      
 4 yellow   
 5 brown    
 6 blue     
 7 blue     
 8 red      
 9 brown    
10 blue-gray
# … with 77 more rows

# En nyttig funksjon for å finne navna til alle kolonnene (variablene) er:
colnames(starwars)

 [1] "name"       "height"     "mass"       "hair_color" "skin_color"
 [6] "eye_color"  "birth_year" "sex"        "gender"     "homeworld" 
[11] "species"    "films"      "vehicles"   "starships" 

starwars["species"]

# A tibble: 87 × 1
   species
   <chr>  
 1 Human  
 2 Droid  
 3 Droid  
 4 Human  
 5 Human  
 6 Human  
 7 Human  
 8 Droid  
 9 Human  
10 Human  
# … with 77 more rows
…
Som du begynner å skjønne er det flere veier til Rom. Klammeparantesen og $ har tildels overlappende funksjoner. De har likevel sine unike bruksområder. De vil vi lære å anerkjenne etter hvert som vi arbeider med dem. En nyttig ting med [] er at vi kan bruke det som et enkelt filter.

# Velg kun de karakterene som er menneske
starwars[starwars$species == "Human", ]

# A tibble: 39 × 14
   name        height  mass hair_…¹ skin_…² eye_c…³ birth…⁴ sex   gender homew…⁵
   <chr>        <int> <dbl> <chr>   <chr>   <chr>     <dbl> <chr> <chr>  <chr>  
 1 Luke Skywa…    172    77 blond   fair    blue       19   male  mascu… Tatooi…
 2 Darth Vader    202   136 none    white   yellow     41.9 male  mascu… Tatooi…
 3 Leia Organa    150    49 brown   light   brown      19   fema… femin… Aldera…
 4 Owen Lars      178   120 brown,… light   blue       52   male  mascu… Tatooi…
 5 Beru White…    165    75 brown   light   blue       47   fema… femin… Tatooi…
 6 Biggs Dark…    183    84 black   light   brown      24   male  mascu… Tatooi…
 7 Obi-Wan Ke…    182    77 auburn… fair    blue-g…    57   male  mascu… Stewjon
 8 Anakin Sky…    188    84 blond   fair    blue       41.9 male  mascu… Tatooi…
 9 Wilhuff Ta…    180    NA auburn… fair    blue       64   male  mascu… Eriadu 
10 Han Solo       180    80 brown   fair    brown      29   male  mascu… Corell…
# … with 29 more rows, 4 more variables: species <chr>, films <list>,
#   vehicles <list>, starships <list>, and abbreviated variable names
#   ¹​hair_color, ²​skin_color, ³​eye_color, ⁴​birth_year, ⁵​homeworld
…
