R for Byplankontoret - 6 Inspisere data
…
# Det er 14 kolonner. 
# Med mindre du har en svær skjerm kan vi ikke se alle på en gang.
starwars %>% colnames()

 [1] "name"       "height"     "mass"       "hair_color" "skin_color"
 [6] "eye_color"  "birth_year" "sex"        "gender"     "homeworld" 
[11] "species"    "films"      "vehicles"   "starships" 

# Vi kikker på noen spesifikke kolonner. 
# Films er ei liste, så den ser vi ikke direkte.
starwars %>% select(name, species, films)

# A tibble: 87 × 3
   name               species films    
   <chr>              <chr>   <list>   
 1 Luke Skywalker     Human   <chr [5]>
 2 C-3PO              Droid   <chr [6]>
 3 R2-D2              Droid   <chr [7]>
 4 Darth Vader        Human   <chr [4]>
 5 Leia Organa        Human   <chr [5]>
 6 Owen Lars          Human   <chr [3]>
 7 Beru Whitesun lars Human   <chr [3]>
 8 R5-D4              Droid   <chr [1]>
 9 Biggs Darklighter  Human   <chr [1]>
10 Obi-Wan Kenobi     Human   <chr [6]>
# ℹ 77 more rows

# Vi vil ha 1, 3, 5, og 7 kolonne
starwars %>% select(1, 3, 5, 7)

# A tibble: 87 × 4
   name                mass skin_color  birth_year
   <chr>              <dbl> <chr>            <dbl>
 1 Luke Skywalker        77 fair              19  
 2 C-3PO                 75 gold             112  
 3 R2-D2                 32 white, blue       33  
 4 Darth Vader          136 white             41.9
 5 Leia Organa           49 light             19  
 6 Owen Lars            120 light             52  
 7 Beru Whitesun lars    75 light             47  
 8 R5-D4                 32 white, red        NA  
 9 Biggs Darklighter     84 light             24  
10 Obi-Wan Kenobi        77 fair              57  
# ℹ 77 more rows

# Alle kolonner som inneholder en viss tekststreng
starwars %>% select(contains("color"))

# A tibble: 87 × 3
   hair_color    skin_color  eye_color
   <chr>         <chr>       <chr>    
 1 blond         fair        blue     
 2 <NA>          gold        yellow   
 3 <NA>          white, blue red      
 4 none          white       yellow   
 5 brown         light       brown    
 6 brown, grey   light       blue     
 7 brown         light       blue     
 8 <NA>          white, red  red      
 9 black         light       brown    
10 auburn, white fair        blue-gray
# ℹ 77 more rows

# Alle kolonner som er numeriske
starwars %>% select(where(is.numeric))

# A tibble: 87 × 3
   height  mass birth_year
    <int> <dbl>      <dbl>
 1    172    77       19  
 2    167    75      112  
 3     96    32       33  
 4    202   136       41.9
 5    150    49       19  
 6    178   120       52  
 7    165    75       47  
 8     97    32       NA  
 9    183    84       24  
10    182    77       57  
# ℹ 77 more rows
…
