R for Byplankontoret - 9 Tranformasjoner
…
Når vi tar inn et datasett i SPSS er det vanligvis fordi vi vil transformere det på et vis. Vi gjør også en god del transformasjoner i Excel. Så klart skal vi også transformere verdier i R også. Nå vil vi merke fordelen ved at R er designa for å operere på vektorer. Når du gjør en transformasjon på en kolonne i et datasett (som du kanskje husker kan anses som en vektor i en liste), vil R utføre transformasjonen på hele lista. Hva betyr det? Vi lager en enkel kolonne i et datasett. Kolonnas verdi avhenger av en annen kolonne i datasettet.

starwars %>% 
  select(name, hair_color, eye_color) %>% 
  mutate(blond_blue_eyed = if_else(hair_color == "blond" & eye_color == "blue", TRUE, FALSE))

# A tibble: 87 × 4
   name               hair_color    eye_color blond_blue_eyed
   <chr>              <chr>         <chr>     <lgl>          
 1 Luke Skywalker     blond         blue      TRUE           
 2 C-3PO              <NA>          yellow    FALSE          
 3 R2-D2              <NA>          red       FALSE          
 4 Darth Vader        none          yellow    FALSE          
 5 Leia Organa        brown         brown     FALSE          
 6 Owen Lars          brown, grey   blue      FALSE          
 7 Beru Whitesun lars brown         blue      FALSE          
 8 R5-D4              <NA>          red       FALSE          
 9 Biggs Darklighter  black         brown     FALSE          
10 Obi-Wan Kenobi     auburn, white blue-gray FALSE          
# ℹ 77 more rows
…
9.1.1 Noen nyttige funksjoner til mutate

Her er noen nyttige funksjoner som jeg ofte bruker sammen med mutate().

Varianter av if else: ifelse(), if_else og case_when.

# Vi lager et datasett med noen personer som vi veit kjønn og alder til.
set.seed(123)
folk <- tibble(
  kjonn = rep(c("M", "K"), 25),
  alder = round(runif(50, 10, 80))
)
folk

# A tibble: 50 × 2
   kjonn alder
   <chr> <dbl>
 1 M        30
 2 K        65
 3 M        39
 4 K        72
 5 M        76
 6 K        13
 7 M        47
 8 K        72
 9 M        49
10 K        42
# ℹ 40 more rows

# Vi kan lage en ny variabel som forteller oss hvem som er myndig (fylt 18):
# Til dette bruker vi `if_else()`. 
folk %>% 
  mutate(myndig = if_else(alder > 17, TRUE, FALSE))

# A tibble: 50 × 3
   kjonn alder myndig
   <chr> <dbl> <lgl> 
 1 M        30 TRUE  
 2 K        65 TRUE  
 3 M        39 TRUE  
 4 K        72 TRUE  
 5 M        76 TRUE  
 6 K        13 FALSE 
 7 M        47 TRUE  
 8 K        72 TRUE  
 9 M        49 TRUE  
10 K        42 TRUE  
# ℹ 40 more rows

# Verdiene til `if_else()` kan være noe annet også:
folk %>% 
  mutate(myndig = if_else(alder > 17, "myndig", "barn"))

# A tibble: 50 × 3
   kjonn alder myndig
   <chr> <dbl> <chr> 
 1 M        30 myndig
 2 K        65 myndig
 3 M        39 myndig
 4 K        72 myndig
 5 M        76 myndig
 6 K        13 barn  
 7 M        47 myndig
 8 K        72 myndig
 9 M        49 myndig
10 K        42 myndig
# ℹ 40 more rows
Hva er forskjellen på ifelse() og if_else()? Sistnevnte kommer fra dplyr og er en kjappere og strengere versjon av ifelse(). Alle argumenta må være av samme type, så du henter du får feilmelding når du bruker denne.

case_when() er en nyttig utvidelse av if else-tankegangen når vi har mer enn to muligheter. For eksempel hvis vi skal lage en kjapp alderskategorisering. case_when() følger en struktur hvor du definerer betingelsen på venstre side av ~ og resultatet på høyre side. Bruken av tilde (~) indikerer at dette et et formel-objekt. Vi har ikke snakka noe særlig om formel-objekter hittil, og jeg tenker at vi ikke trenger å gå inn på det her heller. Men hvis du noen gang skal gjøre noe fancy med case_when() kan det være greit å vite at den bruker formler i koden sin.

folk %>% 
  mutate(alders_gruppe = case_when(
    alder < 18 ~ 1, 
    alder >= 18 & alder < 30 ~ 2,
    alder >= 30 & alder < 40 ~ 3,
    alder >= 40 & alder < 50 ~ 4,
    alder > 50 ~ 5,
    TRUE ~ NA_real_)
  )

# A tibble: 50 × 3
   kjonn alder alders_gruppe
   <chr> <dbl>         <dbl>
 1 M        30             3
 2 K        65             5
 3 M        39             3
 4 K        72             5
 5 M        76             5
 6 K        13             1
 7 M        47             4
 8 K        72             5
 9 M        49             4
10 K        42             4
# ℹ 40 more rows
…
